Wildfires in California - Examining California Wildfires
…
U.S. Geological Survey (USGS) Gap Analysis Project (GAP) in 2022: Protected Areas Database of the United States

fires_county: merged fire data and county boundaries

fire_manage: merged fire data and land management agency boundaries

county_fire_stats: wrangled with fires_county to make some calculations regarding frequency and intensity

Simple feature collection with 251 features and 5 fields
Geometry type: MULTIPOLYGON
Dimension:     XY
Bounding box:  xmin: -124.4096 ymin: 32.53444 xmax: -114.1312 ymax: 42.00948
Geodetic CRS:  NAD83
# A tibble: 251 × 6
   county_name discover_yr fire_count total_acres avg_size
   <chr>             <dbl>      <int>       <dbl>    <dbl>
 1 Alpine             1985          1       770      770  
 2 Alpine             1986          1      3383.    3383. 
 3 Alpine             1987          1      6354.    6354. 
 4 Alpine             1996          1        40       40  
 5 Alpine             2002          2     23620    11810  
 6 Alpine             2005          1        10       10  
 7 Alpine             2007          1        37.8     37.8
 8 Alpine             2011          1        81       81  
 9 Alpine             2015          1     17790    17790  
10 Alpine             2017          2     18021.    9010. 
# ℹ 241 more rows
# ℹ 1 more variable: WKT <MULTIPOLYGON [°]>
…
